 [
        {
            "empId": "15511",
            "Name": "Animesh",
            "Email": "Animesh@mitel.com"
        },
        {
            "empId": "19616",
            "Name": "Dhinadhayalan",
            "Email": "dhina.dhayalan@mitel.com"
        },
        {
            "empId": "17666",
            "Name": "Siva Alanka",
            "Email": "Siva.Alanka@mitel.com"
        },
        {
            "empId": "20616",
            "Name": "Jithin A",
            "Email": "Jithin.Ajithkumar@mitel.com"
        },
        {
            "empId": "21193",
            "Name": "Riyas A",
            "Email": "Riyas.A@mitel.com"
        },
        {
            "empId": "17397",
            "Name": "Sharief Ahamed",
            "Email": "sharief.ahamed@mitel.com"
        },
        {
            "empId": "19078",
            "Name": "Ravindra Amareddy",
            "Email": "ravindra.amareddy@mitel.com"
        },
        {
            "empId": "10008",
            "Name": "Kashinath Mukhopadhyay",
            "Email": "kashinath.mukhopadhyay@mitel.com"
        },
        {
            "empId": "10004",
            "Name": "Anurag Kumar",
            "Email": "anurag.kumar@mitel.com"
        },
        {
            "empId": "15821",
            "Name": "Tejaswini Arunachalam",
            "Email": "tejaswini.a@mitel.com"
        },
        {
            "empId": "19957",
            "Name": "Prashant Asodia",
            "Email": "prashant.asodia@mitel.com"
        },
        {
            "empId": "14008",
            "Name": "Deepak Goyal",
            "Email": "Deepak.Goyal@mitel.com"
        },
        {
            "empId": "17801",
            "Name": "Mangesh Auti",
            "Email": "mangesh.auti@mitel.com"
        },
        {
            "empId": "20022",
            "Name": "Krishna Chaitanya Avireni",
            "Email": "Krishna.Avireni@mitel.com"
        },
        {
            "empId": "19708",
            "Name": "Abhilash B B",
            "Email": "Abhilash.B@mitel.com"
        },
        {
            "empId": "20439",
            "Name": "Ravi Badhavath",
            "Email": "RaviKumar.Badhavath@mitel.com"
        },
        {
            "empId": "21371",
            "Name": "Venugopal Bagala",
            "Email": "venugopal.bagala@mitel.com"
        },
        {
            "empId": "21106",
            "Name": "Rochak Bagla",
            "Email": "Rochak.Bagla@mitel.com"
        },
        {
            "empId": "15592",
            "Name": "Harish Basavaraju",
            "Email": "harish.basavaraju@mitel.com"
        },
        {
            "empId": "19623",
            "Name": "Reetika C",
            "Email": "Reetika.C@mitel.com"
        },
        {
            "empId": "17853",
            "Name": "Mahesh Behera",
            "Email": "mahesh.behera@mitel.com"
        },
        {
            "empId": "17510",
            "Name": "Preethy Bellamkonda",
            "Email": "Preethy.Bellamkonda@mitel.com"
        },
        {
            "empId": "20719",
            "Name": "Manish Bhadani",
            "Email": "Manish.Bhadani@mitel.com"
        },
        {
            "empId": "15648",
            "Name": "Jitendra Singh Bhadoriya",
            "Email": "jitendra.bhadoriya@mitel.com"
        },
        {
            "empId": "19778",
            "Name": "Santosh Bhamidimarri",
            "Email": "santosh.bhamidimarri@mitel.com"
        },
        {
            "empId": "15358",
            "Name": "Ratnesh Bharti",
            "Email": "ratnesh.bharti@mitel.com"
        },
        {
            "empId": "17655",
            "Name": "ShankaraPrasad Bhat",
            "Email": "ShankaraPrasad.Bhat@mitel.com"
        },
        {
            "empId": "18396",
            "Name": "Vighneshwar Bhat",
            "Email": "vighneshwar.bhat@mitel.com"
        },
        {
            "empId": "17246",
            "Name": "Ishani Bhattacharjee",
            "Email": "ishani.bhattacharjee@mitel.com"
        },
        {
            "empId": "21107",
            "Name": "Anekanth Bhosge",
            "Email": "Anekanth.Bhosge@mitel.com"
        },
        {
            "empId": "15776",
            "Name": "Shyamal Bhowmik",
            "Email": "Shyamal.Bhowmik@mitel.com"
        },
        {
            "empId": "16761",
            "Name": "Mallanna Biradar",
            "Email": "Mallanna.Biradar@mitel.com"
        },
        {
            "empId": "17596",
            "Name": "Kautilya Bora",
            "Email": "Kautilya.Bora@mitel.com"
        },
        {
            "empId": "21203",
            "Name": "Prasanthi C",
            "Email": "prasanthi.c@mitel.com"
        },
        {
            "empId": "17667",
            "Name": "Karun Kariappa",
            "Email": "Karun.kariappa@mitel.com"
        },
        {
            "empId": "18780",
            "Name": "Zameer Ahmed C S",
            "Email": "zameer.shabeer@mitel.com"
        },
        {
            "empId": "18347",
            "Name": "Ravi CG",
            "Email": "ravi.cg@mitel.com"
        },
        {
            "empId": "15778",
            "Name": "Srinivas Ch",
            "Email": "srinivas.chippa@mitel.com"
        },
        {
            "empId": "15740",
            "Name": "Harsha Vardhan Chapalamadugu",
            "Email": "Harsha.Chapalamadugu@mitel.com"
        },
        {
            "empId": "15862",
            "Name": "Aditya Chaudhari",
            "Email": "Aditya.Chaudhari@mitel.com"
        },
        {
            "empId": "17662",
            "Name": "Manish Chaudhary",
            "Email": "Manish.Chaudhary@mitel.com"
        },
        {
            "empId": "10013",
            "Name": "Anupam Bhatia",
            "Email": "anupam.bhatia@mitel.com"
        },
        {
            "empId": "17822",
            "Name": "Arya Cheriyath",
            "Email": "arya.cheriyath@mitel.com"
        },
        {
            "empId": "17183",
            "Name": "Sandeep Chetry",
            "Email": "Sandeep.Chetry@mitel.com"
        },
        {
            "empId": "16758",
            "Name": "Surya Chinka",
            "Email": "Surya.Chinka@mitel.com"
        },
        {
            "empId": "20926",
            "Name": "Vijeyeswara Chokkalingam",
            "Email": "Vijeyeswara.Chokkalingam@mitel.com"
        },
        {
            "empId": "20888",
            "Name": "Savit Chopra",
            "Email": "Savit.Chopra@mitel.com"
        },
        {
            "empId": "15703",
            "Name": "Jay Choudhary",
            "Email": "jay.choudhary@mitel.com"
        },
        {
            "empId": "19236",
            "Name": "Vikram Chugh",
            "Email": "Vikram.Chugh@Mitel.com"
        },
        {
            "empId": "16036",
            "Name": "Kirthika Yeleswaram",
            "Email": "Kirthika.Yeleswaram@mitel.com"
        },
        {
            "empId": "17299",
            "Name": "Krishanu Das",
            "Email": "krishanu.das@mitel.com"
        },
        {
            "empId": "17863",
            "Name": "Manoj Dash",
            "Email": "Manoj.Dash@Mitel.com"
        },
        {
            "empId": "15565",
            "Name": "Hema Sekara Raghava Raju Datla",
            "Email": "raghava.raju@mitel.com"
        },
        {
            "empId": "17701",
            "Name": "Rituparna Deb (Rituparna)",
            "Email": "rituparna.deb@Mitel.com"
        },
        {
            "empId": "17697",
            "Name": "Pranav Deshpande",
            "Email": "Pranav.Deshpande@mitel.com"
        },
        {
            "empId": "20892",
            "Name": "Pushpendra Yadav",
            "Email": "Pushpendra.yadav@mitel.com"
        },
        {
            "empId": "15644",
            "Name": "Subhankar Dey",
            "Email": "subhankar.dey@mitel.com"
        },
        {
            "empId": "20880",
            "Name": "Swapnil Dhere",
            "Email": "Swapnil.Dhere@mitel.com"
        },
        {
            "empId": "18574",
            "Name": "Ajitabh Yadav",
            "Email": "ajitabh.yadav@mitel.com"
        },
        {
            "empId": "21343",
            "Name": "Sushma Sri Donthineni",
            "Email": "sushmasri.donthineni@mitel.com"
        },
        {
            "empId": "17594",
            "Name": "Dileep Kumar Dubasi",
            "Email": "Dileep.Dubasi@Mitel.com"
        },
        {
            "empId": "70954",
            "Name": "Srikanth Vukkadapu",
            "Email": "srikanth.vukkadapu@mitel.com"
        },
        {
            "empId": "20513",
            "Name": "LakshmiNarayanan Viswanathan",
            "Email": "lakshmi.narayanan@mitel.com"
        },
        {
            "empId": "21220",
            "Name": "Bharath G",
            "Email": "bharath.g@mitel.com"
        },
        {
            "empId": "17345",
            "Name": "Somasekhar Gaduputi",
            "Email": "Somasekhar.Gaduputi@mitel.com"
        },
        {
            "empId": "17935",
            "Name": "Bharath Kumar Gajula",
            "Email": "Bharath.Gajula@Mitel.com"
        },
        {
            "empId": "19659",
            "Name": "Viswanadha Gali",
            "Email": "viswanadha.gali@mitel.com"
        },
        {
            "empId": "17034",
            "Name": "Garima Gaur",
            "Email": "Garima.Gaur@mitel.com"
        },
        {
            "empId": "16008",
            "Name": "Nishant Gaurav",
            "Email": "Nishant.Gaurav1@mitel.com"
        },
        {
            "empId": "20440",
            "Name": "Midhulya George",
            "Email": "Midhulya.George@mitel.com"
        },
        {
            "empId": "18397",
            "Name": "Mallikarjuna Gottam",
            "Email": "mallikarjuna.gottam@mitel.com"
        },
        {
            "empId": "17649",
            "Name": "Ashokkumar Govindasamy",
            "Email": "Ashokkumar.Govindasamy@mitel.com"
        },
        {
            "empId": "19979",
            "Name": "Dharmendra Verma",
            "Email": "dharmendra.verma@mitel.com"
        },
        {
            "empId": "18253",
            "Name": "Sahil Guleria",
            "Email": "sahil.guleria@mitel.com"
        },
        {
            "empId": "15777",
            "Name": "Mayankesh Gupta",
            "Email": "Mayankesh.Gupta@mitel.com"
        },
        {
            "empId": "20720",
            "Name": "Saurabh Gupta",
            "Email": "saurabh.gupta@mitel.com"
        },
        {
            "empId": "21434",
            "Name": "Adapa Guru Prasad",
            "Email": "adapa.guruprasad@mitel.com"
        },
        {
            "empId": "17936",
            "Name": "Philip H",
            "Email": "Philip.Harry@Mitel.com"
        },
        {
            "empId": "21202",
            "Name": "KOMALAA H",
            "Email": "komalaa.h@mitel.com"
        },
        {
            "empId": "19433",
            "Name": "Shiva Kumar H N",
            "Email": "Shiva.HN@Mitel.com"
        },
        {
            "empId": "15754",
            "Name": "Vani Hebballi",
            "Email": "Vani.Hebballi@mitel.com"
        },
        {
            "empId": "19830",
            "Name": "Vikram Hon",
            "Email": "vikram.hon@mitel.com"
        },
        {
            "empId": "70949",
            "Name": "Nitin Kumar Verma",
            "Email": "nitin.verma@mitel.com"
        },
        {
            "empId": "17754",
            "Name": "Ahamed Hussainali",
            "Email": "Ahamed.Hussainali@mitel.com"
        },
        {
            "empId": "18569",
            "Name": "Arjun Varadannavar",
            "Email": "arjun.varadannavar@mitel.com"
        },
        {
            "empId": "21148",
            "Name": "Chaya J",
            "Email": "chaya.jagannath@mitel.com"
        },
        {
            "empId": "17999",
            "Name": "Karthik Jagadeesh",
            "Email": "Karthik.Jagadeesh@mitel.com"
        },
        {
            "empId": "19828",
            "Name": "Priya Jain",
            "Email": "Priya.Jain@mitel.com"
        },
        {
            "empId": "20723",
            "Name": "Salu Jain",
            "Email": "Salu.Jain@mitel.com"
        },
        {
            "empId": "20890",
            "Name": "Vipul Jain",
            "Email": "Vipul.Jain@mitel.com"
        },
        {
            "empId": "20731",
            "Name": "Manthan Jain",
            "Email": "manthan.jain@mitel.com"
        },
        {
            "empId": "17866",
            "Name": "Khader Kalava",
            "Email": "Khader.Kalava@Mitel.com"
        },
        {
            "empId": "19340",
            "Name": "Manu James",
            "Email": "manu.james@mitel.com"
        },
        {
            "empId": "15794",
            "Name": "Sunil Kumar Reddy Jampana Channamgari",
            "Email": "sunil.reddy@mitel.com"
        },
        {
            "empId": "20018",
            "Name": "Radhakrishnan Jayachandran",
            "Email": "radhakrishnan.jayachandran@mitel.com"
        },
        {
            "empId": "18339",
            "Name": "Keerthivarman Jayaprakash",
            "Email": "Keerthivarman.Jayaprakash@mitel.com"
        },
        {
            "empId": "20535",
            "Name": "Suresh Jeerubandi",
            "Email": "Suresh.Jeerubandi@mitel.com"
        },
        {
            "empId": "17515",
            "Name": "Jinu Jerald",
            "Email": "Jinu.Jerald@mitel.com"
        },
        {
            "empId": "15912",
            "Name": "Pallavi Joshi",
            "Email": "Pallavi.Joshi@mitel.com"
        },
        {
            "empId": "20648",
            "Name": "Sameer Joshi",
            "Email": "Sameer.Joshi@mitel.com"
        },
        {
            "empId": "19976",
            "Name": "Sowjanya Vadlamudi",
            "Email": "sowjanya.vadlamudi@mitel.com"
        },
        {
            "empId": "15548",
            "Name": "Nikhil Somanna K A",
            "Email": "Nikhil.Somanna@mitel.com"
        },
        {
            "empId": "20952",
            "Name": "Karthik K S",
            "Email": "Karthik.Suresh@mitel.com"
        },
        {
            "empId": "17184",
            "Name": "VigneshKumar Sukumar",
            "Email": "Vignesh.Sukumar@mitel.com"
        },
        {
            "empId": "17859",
            "Name": "Shreedhar Kadakol",
            "Email": "Shreedhar.Kadakol@Mitel.com"
        },
        {
            "empId": "16879",
            "Name": "Bhanuprakash Kakumani",
            "Email": "Venkata.Kakumani@mitel.com"
        },
        {
            "empId": "16000",
            "Name": "Pavankumar Kanate",
            "Email": "Pavankumar.Kanate@mitel.com"
        },
        {
            "empId": "17998",
            "Name": "Lakshmi Narasimha Kanchi",
            "Email": "lakshminarasimha.kanchi@mitel.com"
        },
        {
            "empId": "17242",
            "Name": "Amarnath Kanchivanam",
            "Email": "Amarnath.Kanchivanam@mitel.com"
        },
        {
            "empId": "16049",
            "Name": "Gopal Karkal",
            "Email": "Gopal.Karkal@mitel.com"
        },
        {
            "empId": "17187",
            "Name": "HariBabu Karri",
            "Email": "HariBabu.Karri@mitel.com"
        },
        {
            "empId": "16961",
            "Name": "Ganesh Annamalai Karthikeyan",
            "Email": "Ganesh.Karthikeyan@mitel.com"
        },
        {
            "empId": "17633",
            "Name": "Raghushankar Kengeri (RaghuShankar)",
            "Email": "Raghushankar.Kengeri@mitel.com"
        },
        {
            "empId": "17010",
            "Name": "Vinod Kesineni",
            "Email": "Vinod.Kesineni@mitel.com"
        },
        {
            "empId": "21205",
            "Name": "Mohd Amir Khan",
            "Email": "MohdAmir.Khan@mitel.com"
        },
        {
            "empId": "70435",
            "Name": "Satish Kolla",
            "Email": "satish.kolla@mitel.com"
        },
        {
            "empId": "20441",
            "Name": "Akhil Krishnakumar",
            "Email": "Akhil.Krishnakumar@mitel.com"
        },
        {
            "empId": "17805",
            "Name": "Sriram Krishnamachari",
            "Email": "Sriram.Krishnamachari@mitel.com"
        },
        {
            "empId": "18510",
            "Name": "Vijayan Krishnan",
            "Email": "vijayan.krishnan@mitel.com"
        },
        {
            "empId": "17346",
            "Name": "Rajan Krishnankutty",
            "Email": "Rajan.Krishnankutty@mitel.com"
        },
        {
            "empId": "19338",
            "Name": "Vinayak Kulkarni",
            "Email": "vinayak.kulkarni@mitel.com"
        },
        {
            "empId": "17033",
            "Name": "Basant Kumar",
            "Email": "Basant.Kumar1@mitel.com"
        },
        {
            "empId": "17855",
            "Name": "Vivek Kumar",
            "Email": "vivek.kumar1@mitel.com"
        },
        {
            "empId": "19622",
            "Name": "Rahul Kumar",
            "Email": "Rahul.Kumar3@mitel.com"
        },
        {
            "empId": "19951",
            "Name": "Kunal Kumar",
            "Email": "kunal.kumar@mitel.com"
        },
        {
            "empId": "18325",
            "Name": "Abhishek Kumar",
            "Email": "abhishek.kumar-2@mitel.com"
        },
        {
            "empId": "20882",
            "Name": "Pawan Kumar",
            "Email": "Pawan.Kumar@mitel.com"
        },
        {
            "empId": "70603",
            "Name": "Bhagavan Narasimhamurthy",
            "Email": "bhagavan.vn@mitel.com"
        },
        {
            "empId": "18781",
            "Name": "Pemmaiah Uthaiah",
            "Email": "pemmaiah.uthaiah@mitel.com"
        },
        {
            "empId": "70934",
            "Name": "Shayane Umar",
            "Email": "shayane.umar@mitel.com"
        },
        {
            "empId": "18362",
            "Name": "Saravana Kumar A",
            "Email": "saravana.kumar@mitel.com"
        },
        {
            "empId": "18501",
            "Name": "Tushar Turkar",
            "Email": "Tushar.Turkar@mitel.com"
        },
        {
            "empId": "21152",
            "Name": "Lalit Kumawat",
            "Email": "Lalit.Kumawat@mitel.com"
        },
        {
            "empId": "15903",
            "Name": "Kumar Kurdekar",
            "Email": "kumar.kurdekar@mitel.com"
        },
        {
            "empId": "19196",
            "Name": "Tejasvi Kushalappa",
            "Email": "Tejasvi.Kushalappa@Mitel.com"
        },
        {
            "empId": "21006",
            "Name": "Shaik Lakpathi",
            "Email": "Shaik.Lakpathi@mitel.com"
        },
        {
            "empId": "15954",
            "Name": "Sachin Lal",
            "Email": "Sachin.Lal@mitel.com"
        },
        {
            "empId": "17570",
            "Name": "Surya Lenka",
            "Email": "Surya.Lenka@mitel.com"
        },
        {
            "empId": "17516",
            "Name": "Sachin Lokesh",
            "Email": "Sachin.Lokesh@mitel.com"
        },
        {
            "empId": "19972",
            "Name": "Mihir Tripathy",
            "Email": "mihir.tripathy@mitel.com"
        },
        {
            "empId": "15879",
            "Name": "Shankara Narayanan Mangalam",
            "Email": "shankara.mangalam@mitel.com"
        },
        {
            "empId": "17592",
            "Name": "Karthik M",
            "Email": "Karthik.M@mitel.com"
        },
        {
            "empId": "70512",
            "Name": "Lakshmi M",
            "Email": "lakshmi.m@mitel.com"
        },
        {
            "empId": "19663",
            "Name": "Nimosh M",
            "Email": "nimosh.mohanan@mitel.com"
        },
        {
            "empId": "20732",
            "Name": "Naveed M",
            "Email": "naveed.sohel@mitel.com"
        },
        {
            "empId": "70926",
            "Name": "Prasanna Tripathy",
            "Email": "Prasanna.Tripathy@mitel.com"
        },
        {
            "empId": "20534",
            "Name": "Megha M G",
            "Email": "Megha.Gopinath@Mitel.com"
        },
        {
            "empId": "19272",
            "Name": "Sreelatha Madisetti",
            "Email": "Sreelatha.Madisetti@Mitel.com"
        },
        {
            "empId": "20338",
            "Name": "Ananya Anupam Mahala",
            "Email": "AnanyaAnupam.Mahala@mitel.com"
        },
        {
            "empId": "20730",
            "Name": "Anirudh Mahesh",
            "Email": "anirudh.mahesh@mitel.com"
        },
        {
            "empId": "15838",
            "Name": "Paras Malviya",
            "Email": "Paras.Malviya@mitel.com"
        },
        {
            "empId": "21231",
            "Name": "Sayan Mandal",
            "Email": "sayan.mandal@mitel.com"
        },
        {
            "empId": "17837",
            "Name": "Ravi Teja Mandavilli",
            "Email": "ravi.mandavilli@mitel.com"
        },
        {
            "empId": "18164",
            "Name": "Mehul Manglik",
            "Email": "Mehul.Manglik@mitel.com"
        },
        {
            "empId": "16015",
            "Name": "Arun Miras Mani",
            "Email": "Arun.Mani@mitel.com"
        },
        {
            "empId": "18284",
            "Name": "Manas Ranjan Dora Manu",
            "Email": "manas.ranjan@mitel.com"
        },
        {
            "empId": "17717",
            "Name": "Manoj kumar Matavalam",
            "Email": "Manoj.Matavalam@mitel.com"
        },
        {
            "empId": "17340",
            "Name": "Adarsh Mathews",
            "Email": "Adarsh.Mathews@Mitel.com"
        },
        {
            "empId": "19479",
            "Name": "Jagdish Mathpal",
            "Email": "Jagdish.Mathpal@mitel.com"
        },
        {
            "empId": "17665",
            "Name": "Akshat Mathur",
            "Email": "akshat.mathur@mitel.com"
        },
        {
            "empId": "20647",
            "Name": "Puneet Toppo",
            "Email": "puneet.toppo@mitel.com"
        },
        {
            "empId": "19233",
            "Name": "Sanjiv Abhilash Menon",
            "Email": "Sanjiv.Menon@mitel.com"
        },
        {
            "empId": "19831",
            "Name": "Pratik Mhatre",
            "Email": "pratik.mhatre@mitel.com"
        },
        {
            "empId": "20565",
            "Name": "Sanjiv Kumar Mishra",
            "Email": "SanjivKumar.Mishra@mitel.com"
        },
        {
            "empId": "19884",
            "Name": "Nalini Mohapatra",
            "Email": "Nalini.Mohapatra@mitel.com"
        },
        {
            "empId": "20659",
            "Name": "Sabyasachi Mohapatra",
            "Email": "Sabyasachi.Mohapatra@Mitel.com"
        },
        {
            "empId": "17298",
            "Name": "Rama Krishna Mundru",
            "Email": "Rama.Mundru@mitel.com"
        },
        {
            "empId": "17758",
            "Name": "Mohammed Muneer",
            "Email": "Mohammed.Muneer@mitel.com"
        },
        {
            "empId": "20650",
            "Name": "Divya Mungarawadi",
            "Email": "Divya.Mungarawadi@mitel.com"
        },
        {
            "empId": "17865",
            "Name": "Varalakshmi Munikrishna",
            "Email": "Varalakshmi.Munikrishna@Mitel.com"
        },
        {
            "empId": "17864",
            "Name": "Tejas Murthy",
            "Email": "Tejas.Murthy@Mitel.com"
        },
        {
            "empId": "20104",
            "Name": "Venkata Musunuri",
            "Email": "venkata.musunuri@mitel.com"
        },
        {
            "empId": "21009",
            "Name": "Vijaykumar Mutta",
            "Email": "Vijaykumar.Mutta@mitel.com"
        },
        {
            "empId": "19238",
            "Name": "Hariprasad N",
            "Email": "hariprasad.n@mitel.com"
        },
        {
            "empId": "19956",
            "Name": "Venkatesha N",
            "Email": "Venkatesha.N@mitel.com"
        },
        {
            "empId": "70907",
            "Name": "Deevena Thota",
            "Email": "deevena.thota@mitel.com"
        },
        {
            "empId": "15814",
            "Name": "Venkataraman Nagarathnam",
            "Email": "Venkataraman.Nagarathnam@mitel.com"
        },
        {
            "empId": "20721",
            "Name": "Balaji Nagisetty",
            "Email": "Balaji.Nagisetty@mitel.com"
        },
        {
            "empId": "20019",
            "Name": "Ankitha Nandhini",
            "Email": "ankitha.nandhini@mitel.com"
        },
        {
            "empId": "19042",
            "Name": "Srinadh Nandi",
            "Email": "srinadh.nandi@mitel.com"
        },
        {
            "empId": "17931",
            "Name": "Karthik Nanjundaiah",
            "Email": "Karthik.Nanjundaiah@Mitel.com"
        },
        {
            "empId": "17165",
            "Name": "Sapna Narasimhan",
            "Email": "sapna.narashimhan@mitel.com"
        },
        {
            "empId": "20718",
            "Name": "Sachin Neelammath",
            "Email": "Sachin.Neelammath@mitel.com"
        },
        {
            "empId": "16012",
            "Name": "Feroza Niketh",
            "Email": "feroza.niketh@mitel.com"
        },
        {
            "empId": "20613",
            "Name": "Suren Ojha",
            "Email": "suren.ojha@mitel.com"
        },
        {
            "empId": "17161",
            "Name": "Ramabhadran P",
            "Email": "Ramabhadran.P@mitel.com"
        },
        {
            "empId": "19537",
            "Name": "Rangasubba Reddy P",
            "Email": "rangasubba.p@mitel.com"
        },
        {
            "empId": "20753",
            "Name": "Monisha",
            "Email": "Monisha.Priya@mitel.com"
        },
        {
            "empId": "17597",
            "Name": "Yogesh Pandey",
            "Email": "yogesh.pandey@mitel.com"
        },
        {
            "empId": "17601",
            "Name": "Harshit Pandey",
            "Email": "Harshit.Pandey@mitel.com"
        },
        {
            "empId": "15818",
            "Name": "Sarmistha Pani",
            "Email": "Sarmistha.Pani@mitel.com"
        },
        {
            "empId": "20722",
            "Name": "Sumanta Pani",
            "Email": "Sumanta.Pani@mitel.com"
        },
        {
            "empId": "21305",
            "Name": "Raghudas Panicker",
            "Email": "raghudas.panicker@mitel.com"
        },
        {
            "empId": "21095",
            "Name": "Sandeep Parimal",
            "Email": "Sandeep.Parimal@Mitel.com"
        },
        {
            "empId": "18280",
            "Name": "Junaid Pasha I",
            "Email": "junaid.pashai@mitel.com"
        },
        {
            "empId": "17035",
            "Name": "Milind Patil",
            "Email": "Milind.Patil@mitel.com"
        },
        {
            "empId": "19952",
            "Name": "Pravin Patil",
            "Email": "Pravin.Sidgonda@mitel.com"
        },
        {
            "empId": "70890",
            "Name": "Tantri Tanisha",
            "Email": "tantri.tanisha@mitel.com"
        },
        {
            "empId": "70663",
            "Name": "Madhur Pavani",
            "Email": "madhur.pavani@mitel.com"
        },
        {
            "empId": "20881",
            "Name": "Vijay Pawar",
            "Email": "Vijay.Pawar@mitel.com"
        },
        {
            "empId": "20710",
            "Name": "James Philip",
            "Email": "james.philip@mitel.com"
        },
        {
            "empId": "70682",
            "Name": "Srinivas Pillalamarri",
            "Email": "srinivas.pillalamarri@mitel.com"
        },
        {
            "empId": "20751",
            "Name": "Goutham Pogaku",
            "Email": "Goutham.Pogaku@mitel.com"
        },
        {
            "empId": "17856",
            "Name": "Madhukar Poreddy",
            "Email": "madhukar.poreddy@mitel.com"
        },
        {
            "empId": "17166",
            "Name": "Ramesh Posina",
            "Email": "ramesh.posina@mitel.com"
        },
        {
            "empId": "20614",
            "Name": "Sandeep Potdar",
            "Email": "Sandeep.Potdar@mitel.com"
        },
        {
            "empId": "70692",
            "Name": "Suraj Prabhu",
            "Email": "suraj.prabhu@mitel.com"
        },
        {
            "empId": "70885",
            "Name": "Deeksha Talapady",
            "Email": "deeksha.talapady@mitel.com"
        },
        {
            "empId": "20027",
            "Name": "Pitabas Pradhan",
            "Email": "Pitabas.Pradhan@mitel.com"
        },
        {
            "empId": "15536",
            "Name": "Om Prakash",
            "Email": "Om.Prakash1@mitel.com"
        },
        {
            "empId": "20533",
            "Name": "Megha Prasanna",
            "Email": "Megha.Prasanna@Mitel.com"
        },
        {
            "empId": "15774",
            "Name": "Ganesh Ramanathan",
            "Email": "ganesh.ramanathan@mitel.com"
        },
        {
            "empId": "19580",
            "Name": "Kishor R",
            "Email": "kishor.r@mitel.com"
        },
        {
            "empId": "20164",
            "Name": "Lingenayak R",
            "Email": "lingenayak.r@mitel.com"
        },
        {
            "empId": "20345",
            "Name": "Dharshan R",
            "Email": "dharshan.rajendra@mitel.com"
        },
        {
            "empId": "19533",
            "Name": "Darshankumar Bambore",
            "Email": "Darshankumar.Bambore@mitel.com"
        },
        {
            "empId": "15989",
            "Name": "Rajneesh R S",
            "Email": "Rajneesh.Ramakrishnan@mitel.com"
        },
        {
            "empId": "20889",
            "Name": "Toufiq Rahman",
            "Email": "Toufiq.Rahman@mitel.com"
        },
        {
            "empId": "17244",
            "Name": "Priyank Rai",
            "Email": "Priyank.Rai@mitel.com"
        },
        {
            "empId": "14376",
            "Name": "Keshava Dutt Tadepalli",
            "Email": "keshava.tadepalli@mitel.com"
        },
        {
            "empId": "19939",
            "Name": "Nagaraj Raikar",
            "Email": "nagaraj.raikar@mitel.com"
        },
        {
            "empId": "18589",
            "Name": "Johnson Raj R",
            "Email": "Johnson.Raj@mitel.com"
        },
        {
            "empId": "16037",
            "Name": "Ganesh Rajagopalan",
            "Email": "ganesh.rajagopalan@mitel.com"
        },
        {
            "empId": "20020",
            "Name": "Murulidhara Rajanna",
            "Email": "Murulidhara.Rajanna@mitel.com"
        },
        {
            "empId": "15674",
            "Name": "Sathyaraj Rajendran",
            "Email": "Sathyaraj.Rajendran@mitel.com"
        },
        {
            "empId": "15714",
            "Name": "Boopalan Rajendran",
            "Email": "Boopalan.Rajendran@mitel.com"
        },
        {
            "empId": "19750",
            "Name": "Jagadeesh Rajesh",
            "Email": "Jagadeesh.Rajesh@mitel.com"
        },
        {
            "empId": "17517",
            "Name": "Mahesh Raju",
            "Email": "Mahesh.Raju@mitel.com"
        },
        {
            "empId": "17640",
            "Name": "Srinivasa Rallapalli",
            "Email": "Srinivasa.Rallapalli@mitel.com"
        },
        {
            "empId": "15641",
            "Name": "Megha Ramachandra",
            "Email": "megha.ramachandra@mitel.com"
        },
        {
            "empId": "21007",
            "Name": "Sreerag Ramachandran",
            "Email": "Sreerag.Ramachandran@mitel.com"
        },
        {
            "empId": "15608",
            "Name": "Vijaya Ramala",
            "Email": "vijaya.ramala@mitel.com"
        },
        {
            "empId": "20578",
            "Name": "Manuja T",
            "Email": "manuja.thippeswamy@mitel.com"
        },
        {
            "empId": "17593",
            "Name": "Rohit Ranjan",
            "Email": "Rohit.Ranjan@mitel.com"
        },
        {
            "empId": "17937",
            "Name": "Yashavantha Rao",
            "Email": "Yashavantha.Rao@Mitel.com"
        },
        {
            "empId": "18324",
            "Name": "Narasimha Rao",
            "Email": "Narasimha.Rao@mitel.com"
        },
        {
            "empId": "15499",
            "Name": "Aashish Raval",
            "Email": "aashish.raval@mitel.com"
        },
        {
            "empId": "20537",
            "Name": "Sourab Ravindrakumar",
            "Email": "Sourab.Ravindrakumar@Mitel.com"
        },
        {
            "empId": "17735",
            "Name": "Amith Ravindran",
            "Email": "Amith.Ravindran@mitel.com"
        },
        {
            "empId": "17591",
            "Name": "Arvind Rawat",
            "Email": "arvind.rawat@mitel.com"
        },
        {
            "empId": "17696",
            "Name": "Maaz Syed",
            "Email": "Maaz.Syed@mitel.com"
        },
        {
            "empId": "17645",
            "Name": "Narendiran Rengamani",
            "Email": "Narendiran.Rengamani@mitel.com"
        },
        {
            "empId": "19874",
            "Name": "Punith S",
            "Email": "Punith.S@mitel.com"
        },
        {
            "empId": "21135",
            "Name": "Rajeshwari S",
            "Email": "Rajeshwari.s@mitel.com"
        },
        {
            "empId": "17053",
            "Name": "Vipin Sadasivan (Vipin ks)",
            "Email": "vipin.sadasivan@mitel.com"
        },
        {
            "empId": "20329",
            "Name": "Subhasish Sahoo",
            "Email": "Subhasish.Sahoo@mitel.com"
        },
        {
            "empId": "21237",
            "Name": "Birendra Kumar Sahu",
            "Email": "Birendra.Sahu@mitel.com"
        },
        {
            "empId": "15797",
            "Name": "Rakesh Sahukari",
            "Email": "rakesh.sahukari@mitel.com"
        },
        {
            "empId": "16872",
            "Name": "Sandeep Sain",
            "Email": "Sandeep.Sain@mitel.com"
        },
        {
            "empId": "18508",
            "Name": "Ramesh Sampath",
            "Email": "ramesh.sampath@mitel.com"
        },
        {
            "empId": "15638",
            "Name": "Nitin Sandal",
            "Email": "nitin.sandal@mitel.com"
        },
        {
            "empId": "19170",
            "Name": "Madhukumara Sanjeevappa",
            "Email": "madhukumara.sanjeevappa@mitel.com"
        },
        {
            "empId": "17860",
            "Name": "Suraleen Sarkar",
            "Email": "suraleen.sarkar@mitel.com"
        },
        {
            "empId": "17494",
            "Name": "Jayanth Sathnur",
            "Email": "Jayanth.Sathnur@Mitel.com"
        },
        {
            "empId": "16034",
            "Name": "Venkatesh Prasad Sathya Murthy",
            "Email": "Venkatesh.Murthy@mitel.com"
        },
        {
            "empId": "20649",
            "Name": "Neethu Sunny",
            "Email": "neethu.sunny@mitel.com"
        },
        {
            "empId": "17756",
            "Name": "Pradeesh Sekaran",
            "Email": "Pradeesh.Sekaran@mitel.com"
        },
        {
            "empId": "18503",
            "Name": "Ranjita Seram",
            "Email": "Ranjita.Seram@Mitel.com"
        },
        {
            "empId": "17646",
            "Name": "Sneha Seshadri",
            "Email": "Sneha.Seshadri@mitel.com"
        },
        {
            "empId": "16009",
            "Name": "Suvendu Seth",
            "Email": "Suvendu.Seth@mitel.com"
        },
        {
            "empId": "18349",
            "Name": "Sameera sultana shaik",
            "Email": "Shaik.Sultana@mitel.com"
        },
        {
            "empId": "18416",
            "Name": "Shadab Shamsi",
            "Email": "Shadab.Shamsi@Mitel.com"
        },
        {
            "empId": "17509",
            "Name": "Sajana Shankaran",
            "Email": "Sajana.Shankaran@mitel.com"
        },
        {
            "empId": "70874",
            "Name": "Anand Sundaram",
            "Email": "anand.sundaram@mitel.com"
        },
        {
            "empId": "15910",
            "Name": "Prashant Sharan",
            "Email": "prashant.sharan@mitel.com"
        },
        {
            "empId": "16759",
            "Name": "Siddharth Sharma",
            "Email": "Siddharth.Sharma@mitel.com"
        },
        {
            "empId": "15793",
            "Name": "Vibhan Shetty",
            "Email": "vibhan.shetty@mitel.com"
        },
        {
            "empId": "70871",
            "Name": "Surendra Sukhavasi",
            "Email": "surendra.sukhavasi@mitel.com"
        },
        {
            "empId": "70809",
            "Name": "Poornima Shivakumar",
            "Email": "poornima.shivakumar@mitel.com"
        },
        {
            "empId": "17074",
            "Name": "Vinay Shivalingaiah",
            "Email": "vinay.shivalingaiah@mitel.com"
        },
        {
            "empId": "15705",
            "Name": "Prabhat Kumar Shukla",
            "Email": "Prabhat.Shukla@mitel.com"
        },
        {
            "empId": "17169",
            "Name": "Shivam Shukla",
            "Email": "shivam.shukla@mitel.com"
        },
        {
            "empId": "16875",
            "Name": "Aniruddha Arvindrao Siddhanti",
            "Email": "Aniruddha.Siddhanti@mitel.com"
        },
        {
            "empId": "17168",
            "Name": "Amit SingBabu",
            "Email": "amit.singbabu@mitel.com"
        },
        {
            "empId": "17162",
            "Name": "Manvendra Singh",
            "Email": "Manvendra-P.Singh@mitel.com"
        },
        {
            "empId": "17858",
            "Name": "Shivendra Singh",
            "Email": "shivendra.singh@mitel.com"
        },
        {
            "empId": "17861",
            "Name": "Jyothi",
            "Email": "jyothi@mitel.com"
        },
        {
            "empId": "18902",
            "Name": "Mandeep Singh",
            "Email": "mandeep.t.singh@mitel.com"
        },
        {
            "empId": "19798",
            "Name": "Akriti Singh",
            "Email": "akriti.singh@mitel.com"
        },
        {
            "empId": "20536",
            "Name": "Vikas Singh",
            "Email": "Vikas.Singh@mitel.com"
        },
        {
            "empId": "21277",
            "Name": "Mayank Singh",
            "Email": "mayank.singh@mitel.com"
        },
        {
            "empId": "15486",
            "Name": "Samuel Soy",
            "Email": "samuel.soy@mitel.com"
        },
        {
            "empId": "16042",
            "Name": "Sameer Srivastava",
            "Email": "Sameer.Srivastava@mitel.com"
        },
        {
            "empId": "21128",
            "Name": "Rajan Srivastava",
            "Email": "rajan.srivastava@mitel.com"
        },
        {
            "empId": "20907",
            "Name": "Subhash Subramanyam",
            "Email": "Subhash.Subramanyam@mitel.com"
        },
        {
            "empId": "18000",
            "Name": "Sarun Suresh",
            "Email": "sarun.suresh@mitel.com"
        },
        {
            "empId": "21300",
            "Name": "Srinivasa Raj T R",
            "Email": "SrinivasaRaj.tr@mitel.com"
        },
        {
            "empId": "18498",
            "Name": "Almas Tabassum",
            "Email": "Almas.Tabassum@mitel.com"
        },
        {
            "empId": "17643",
            "Name": "Tabassum Taj",
            "Email": "Tabassum.Taj@mitel.com"
        },
        {
            "empId": "20711",
            "Name": "Saketh Sudanagunta",
            "Email": "saketh.sudanagunta@mitel.com"
        },
        {
            "empId": "15609",
            "Name": "Rohit Tendulkar",
            "Email": "rohit.tendulkar@mitel.com"
        },
        {
            "empId": "70897",
            "Name": "Thusha Thampi",
            "Email": "thusha.thampi@mitel.com"
        },
        {
            "empId": "17604",
            "Name": "Venkateshwaran Thirugnanam",
            "Email": "venkateshwaran.thirugnanam@mitel.com"
        },
        {
            "empId": "18246",
            "Name": "Rufus Thomas",
            "Email": "rufus.thomas@mitel.com"
        },
        {
            "empId": "18368",
            "Name": "Satya Thotamsetty",
            "Email": "SatyaSindhura.Thotamsetty@Mitel.com"
        },
        {
            "empId": "70869",
            "Name": "Sharanya S",
            "Email": "sharanya.subramanian@mitel.com"
        },
        {
            "empId": "20457",
            "Name": "Vengadesan Strinivasan",
            "Email": "vengadesan.strinivasan@mitel.com"
        },
        {
            "empId": "19751",
            "Name": "Rachit Trivedi",
            "Email": "Rachit.Trivedi@mitel.com"
        },
        {
            "empId": "17857",
            "Name": "Vamsi Udatha",
            "Email": "vamsi.udatha@mitel.com"
        },
        {
            "empId": "15988",
            "Name": "Kaveriamma Udiyanda",
            "Email": "kaveriamma.udiyanda@mitel.com"
        },
        {
            "empId": "17648",
            "Name": "Ashif Ullah",
            "Email": "Ashif.Ullah@mitel.com"
        },
        {
            "empId": "21116",
            "Name": "Surya Prakash Ummadi",
            "Email": "suryaprakash.ummadi@mitel.com"
        },
        {
            "empId": "19953",
            "Name": "Srinivas V",
            "Email": "Srinivas.V@mitel.com"
        },
        {
            "empId": "16949",
            "Name": "Rajesh Kumar V S",
            "Email": "Rajesh.Sarathy@mitel.com"
        },
        {
            "empId": "16869",
            "Name": "Manikanta Vardhineedi",
            "Email": "Manikanta.Vardhineedi@mitel.com"
        },
        {
            "empId": "17802",
            "Name": "Akanksha Varshney",
            "Email": "akanksha.varshney@mitel.com"
        },
        {
            "empId": "17789",
            "Name": "Satish Naidu Vejju",
            "Email": "Satish.Vejju@mitel.com"
        },
        {
            "empId": "70858",
            "Name": "Nilesh Srivastava",
            "Email": "nilesh.srivastava@mitel.com"
        },
        {
            "empId": "19535",
            "Name": "Ankit Srivastav",
            "Email": "ankit.srivastav@mitel.com"
        },
        {
            "empId": "21206",
            "Name": "Amit Verma",
            "Email": "Amit.Verma2@mitel.com"
        },
        {
            "empId": "17980",
            "Name": "Harish Vettekkat",
            "Email": "Harish.Vettekkat@mitel.com"
        },
        {
            "empId": "20532",
            "Name": "Galla Vignan",
            "Email": "Galla.Vignan@mitel.com"
        },
        {
            "empId": "18244",
            "Name": "Avinash Soyanke",
            "Email": "avinash.soyanke@mitel.com"
        },
        {
            "empId": "70849",
            "Name": "Ramakrishna Somavarapu",
            "Email": "ramakrishna.somavarapu@mitel.com"
        },
        {
            "empId": "70833",
            "Name": "Akkala Sireesha",
            "Email": "akkala.sireesha@mitel.com"
        },
        {
            "empId": "17804",
            "Name": "Sunpreet Virk",
            "Email": "sunpreet.virk@mitel.com"
        },
        {
            "empId": "16033",
            "Name": "Murali Vuppandla",
            "Email": "Murali.Vuppandla@mitel.com"
        },
        {
            "empId": "15630",
            "Name": "Anilkumar Yalawarmath (Anil)",
            "Email": "Anilkumar.Yalawarmath@mitel.com"
        },
        {
            "empId": "17868",
            "Name": "Krishna Yanamadala",
            "Email": "Krishna.Yanamadala@Mitel.com"
        },
        {
            "empId": "18279",
            "Name": "Chaithra Yelur",
            "Email": "chaithra.yellur@mitel.com"
        },
        {
            "empId": "18286",
            "Name": "Bhuvana A",
            "Email": "bhuvana.a@mitel.com"
        },
        {
            "empId": "19847",
            "Name": "Silky Singh",
            "Email": "silky.singh@mitel.com"
        },
        {
            "empId": "19316",
            "Name": "Rohit Singh",
            "Email": "Rohit.Singh@Mitel.com"
        },
        {
            "empId": "19230",
            "Name": "Prateek Singh",
            "Email": "Prateek.Singh@Mitel.com"
        },
        {
            "empId": "18502",
            "Name": "Hemanth Aithal",
            "Email": "Hemanth.Aithal@mitel.com"
        },
        {
            "empId": "17559",
            "Name": "Suresh Aluri",
            "Email": "suresh.aluri@mitel.com"
        },
        {
            "empId": "21204",
            "Name": "Suma Amruthesh",
            "Email": "suma.amruthesh@mitel.com"
        },
        {
            "empId": "70018",
            "Name": "Vinay Ananthashayana",
            "Email": "vinay.ananthashayana@mitel.com"
        },
        {
            "empId": "70019",
            "Name": "Rakesh Anchan",
            "Email": "rakesh.anchan@mitel.com"
        },
        {
            "empId": "70031",
            "Name": "Rohit Arora",
            "Email": "rohit.arora@mitel.com"
        },
        {
            "empId": "18334",
            "Name": "Diksha Singh",
            "Email": "diksha.singh@mitel.com"
        },
        {
            "empId": "18547",
            "Name": "Ashish Singh",
            "Email": "Ashish.Singh1@mitel.com"
        },
        {
            "empId": "70047",
            "Name": "Rajmohan Banavi",
            "Email": "rajmohan.banavi@mitel.com"
        },
        {
            "empId": "18326",
            "Name": "Souvik Banerjee",
            "Email": "souvik.banerjee@mitel.com"
        },
        {
            "empId": "18774",
            "Name": "Hameetha",
            "Email": "hameetha.banu@mitel.com"
        },
        {
            "empId": "19978",
            "Name": "Purnima Bauri",
            "Email": "purnima.bauri@mitel.com"
        },
        {
            "empId": "17599",
            "Name": "Manish NL",
            "Email": "Manish.NL@mitel.com"
        },
        {
            "empId": "19950",
            "Name": "Moyinuddin Bhavikatti",
            "Email": "moyinuddin.bhavikatti@mitel.com"
        },
        {
            "empId": "70076",
            "Name": "Deepak Bhimasena",
            "Email": "deepak.bhimasena@mitel.com"
        },
        {
            "empId": "70830",
            "Name": "Bijendra Kumar Singh",
            "Email": "bijendra.singh@mitel.com"
        },
        {
            "empId": "18142",
            "Name": "Vikrant Biswas",
            "Email": "vikrant.biswas@mitel.com"
        },
        {
            "empId": "70081",
            "Name": "Sasi Datta Bitra",
            "Email": "sasi.bitra@mitel.com"
        },
        {
            "empId": "20231",
            "Name": "Vishwanath Byahatti",
            "Email": "vishwanath.byahatti@mitel.com"
        },
        {
            "empId": "70810",
            "Name": "Naveen Shivanna",
            "Email": "naveen.shivanna@mitel.com"
        },
        {
            "empId": "19349",
            "Name": "Vaibhav Sharma",
            "Email": "vaibhav.sharma@mitel.com"
        },
        {
            "empId": "20611",
            "Name": "Mallikarjuna Chandrashekar",
            "Email": "mallikarjuna.chandrashekar@mitel.com"
        },
        {
            "empId": "18565",
            "Name": "Dhiraj Sharma",
            "Email": "Dhiraj.Sharma@mitel.com"
        },
        {
            "empId": "70142",
            "Name": "Upendra Chaurasia",
            "Email": "upendra.chaurasia@mitel.com"
        },
        {
            "empId": "70147",
            "Name": "Prashanth Chennagiri Ramesh Babu",
            "Email": "prashanth.chennagiri@mitel.com"
        },
        {
            "empId": "19826",
            "Name": "Tamilarasan C",
            "Email": "tamilarasan.chinnaraja@mitel.com"
        },
        {
            "empId": "21400",
            "Name": "Kalyan Kumar Chirivella",
            "Email": "kalyankumar.chirivella@mitel.com"
        },
        {
            "empId": "20577",
            "Name": "Bipin Dhoddamane Ravi",
            "Email": "bipin.ravi@mitel.com"
        },
        {
            "empId": "70802",
            "Name": "Prashant Sharma",
            "Email": "prashant.sharma@mitel.com"
        },
        {
            "empId": "70184",
            "Name": "Anuradha Das",
            "Email": "anuradha.das@mitel.com"
        },
        {
            "empId": "20622",
            "Name": "Atria Das",
            "Email": "atria.das@mitel.com"
        },
        {
            "empId": "17664",
            "Name": "Ahamed Shameer",
            "Email": "ahamed.shameer@mitel.com"
        },
        {
            "empId": "20470",
            "Name": "Pradeep Raj Dhanaraj",
            "Email": "pradeepraj.dhanaraj@mitel.com"
        },
        {
            "empId": "15726",
            "Name": "Ravi Dharnaik",
            "Email": "Ravi.Dharnaik@mitel.com"
        },
        {
            "empId": "18141",
            "Name": "Kosika Divya",
            "Email": "kosika.divya@mitel.com"
        },
        {
            "empId": "17250",
            "Name": "Ajit Erra",
            "Email": "Ajit.Erra@mitel.com"
        },
        {
            "empId": "19158",
            "Name": "Rocky Fernandes",
            "Email": "Rocky.Fernandes@mitel.com"
        },
        {
            "empId": "20469",
            "Name": "Zameer Fouzan",
            "Email": "zameer.fouzan@mitel.com"
        },
        {
            "empId": "70296",
            "Name": "Shreekant Guledagudda",
            "Email": "shreekant.guledagudda@mitel.com"
        },
        {
            "empId": "21104",
            "Name": "Rama Krishna Gadde",
            "Email": "ramakrishna.gadde@mitel.com"
        },
        {
            "empId": "18243",
            "Name": "Balaji Gadi",
            "Email": "balaji.gadi@mitel.com"
        },
        {
            "empId": "17716",
            "Name": "Dhiraj Giria",
            "Email": "Dhiraj.Giria@mitel.com"
        },
        {
            "empId": "20564",
            "Name": "Veera Narayana Reddy Gone",
            "Email": "veeranarayana.gone@mitel.com"
        },
        {
            "empId": "70276",
            "Name": "Krishan Gopal",
            "Email": "krishan.gopal@mitel.com"
        },
        {
            "empId": "18869",
            "Name": "Narendra Gopal",
            "Email": "narendra.gopal@mitel.com"
        },
        {
            "empId": "19035",
            "Name": "Renu Setty",
            "Email": "Renu.Setty@Mitel.com"
        },
        {
            "empId": "19232",
            "Name": "Bharath Govindasamy",
            "Email": "bharath.govindasamy@mitel.com"
        },
        {
            "empId": "70280",
            "Name": "Preethi Gowda",
            "Email": "preethi.gowda@mitel.com"
        },
        {
            "empId": "19339",
            "Name": "Himanshu Gupta",
            "Email": "himanshu.gupta@mitel.com"
        },
        {
            "empId": "70298",
            "Name": "Hari Prakash Gururaja Rao",
            "Email": "hari.rao@mitel.com"
        },
        {
            "empId": "70792",
            "Name": "Soubhagya Sethi",
            "Email": "soubhagya.sethi@mitel.com"
        },
        {
            "empId": "70314",
            "Name": "Nagaraja Hebbar",
            "Email": "nagaraja.hebbar@mitel.com"
        },
        {
            "empId": "70316",
            "Name": "Mahabaleshwar Hegde",
            "Email": "mahabaleshwar.hegde@mitel.com"
        },
        {
            "empId": "18335",
            "Name": "Mayura Sasane",
            "Email": "mayura.sasane@mitel.com"
        },
        {
            "empId": "70366",
            "Name": "Srivatsan Iyer",
            "Email": "srivatsan.iyer@mitel.com"
        },
        {
            "empId": "18499",
            "Name": "Parshv Jain",
            "Email": "Parshv.Jain@mitel.com"
        },
        {
            "empId": "20362",
            "Name": "Sripal Jain",
            "Email": "sripal.jain@mitel.com"
        },
        {
            "empId": "18338",
            "Name": "Neha Samal",
            "Email": "neha.samal@mitel.com"
        },
        {
            "empId": "70768",
            "Name": "Vivek Sam",
            "Email": "vivek.sam@mitel.com"
        },
        {
            "empId": "17578",
            "Name": "Shivaprasad Jayaram",
            "Email": "Shivaprasad.Jayaram@Mitel.com"
        },
        {
            "empId": "17700",
            "Name": "Jaishri Jayawanth",
            "Email": "Jaishri.Jayawanth@mitel.com"
        },
        {
            "empId": "18668",
            "Name": "Asim Jena",
            "Email": "asim.jena@mitel.com"
        },
        {
            "empId": "21382",
            "Name": "Prajwal Jena",
            "Email": "prajwal.jena@mitel.com"
        },
        {
            "empId": "19974",
            "Name": "Dilip K",
            "Email": "dilip.k@mitel.com"
        },
        {
            "empId": "70765",
            "Name": "Bezawada Sahithya",
            "Email": "sahithya.bezawada@mitel.com"
        },
        {
            "empId": "70389",
            "Name": "Dhanya K S",
            "Email": "dhanya.ks@mitel.com"
        },
        {
            "empId": "19973",
            "Name": "Spandana",
            "Email": "spandana.v@mitel.com"
        },
        {
            "empId": "18775",
            "Name": "Shivarayappa Kakatikar",
            "Email": "Shivarayappa.Kakatikar@Mitel.com"
        },
        {
            "empId": "18146",
            "Name": "Mohammed Kalimullah",
            "Email": "mohammed.kalimullah@mitel.com"
        },
        {
            "empId": "70393",
            "Name": "Swetha Kalwakuntla",
            "Email": "swetha.kalwakuntla@mitel.com"
        },
        {
            "empId": "70394",
            "Name": "Soumya Kampa",
            "Email": "soumya.kampa@mitel.com"
        },
        {
            "empId": "70398",
            "Name": "Ravishankar Kapale",
            "Email": "ravishankar.kapale@mitel.com"
        },
        {
            "empId": "70400",
            "Name": "Ajoy Karan",
            "Email": "ajoy.karan@mitel.com"
        },
        {
            "empId": "70403",
            "Name": "Santosh Kasula",
            "Email": "santosh.kasula@mitel.com"
        },
        {
            "empId": "21352",
            "Name": "Deepesh Kaushik",
            "Email": "deepesh.kaushik@mitel.com"
        },
        {
            "empId": "15645",
            "Name": "Arunkumar Sable",
            "Email": "Arunkumar.Sable@mitel.com"
        },
        {
            "empId": "20582",
            "Name": "Vijeth S M",
            "Email": "vijeth.sm@mitel.com"
        },
        {
            "empId": "18140",
            "Name": "Aakash Koli",
            "Email": "aakash.koli@mitel.com"
        },
        {
            "empId": "20136",
            "Name": "Manideepa Kotha",
            "Email": "manideepa.kotha@mitel.com"
        },
        {
            "empId": "19971",
            "Name": "Heena Kothari",
            "Email": "heena.kothari@mitel.com"
        },
        {
            "empId": "18776",
            "Name": "Virupakshayya Kulkarni",
            "Email": "virupakshayya.kulkarni@mitel.com"
        },
        {
            "empId": "18332",
            "Name": "Lokesha S",
            "Email": "lokesha.s@mitel.com"
        },
        {
            "empId": "19532",
            "Name": "Raksha S",
            "Email": "raksha.s@mitel.com"
        },
        {
            "empId": "70455",
            "Name": "Navneet Kumar",
            "Email": "navneet.kumar@mitel.com"
        },
        {
            "empId": "70461",
            "Name": "Akshaya Kumar",
            "Email": "akshaya.kumar@mitel.com"
        },
        {
            "empId": "70453",
            "Name": "Manoj Kumar Elangovan",
            "Email": "manoj.kumar-2@mitel.com"
        },
        {
            "empId": "70456",
            "Name": "Nitin Kumar",
            "Email": "nitin.kumar-2@mitel.com"
        },
        {
            "empId": "70454",
            "Name": "Suman Kumar",
            "Email": "suman.kumar-2@mitel.com"
        },
        {
            "empId": "70460",
            "Name": "Vijay Kumar",
            "Email": "vijay.kumar@mitel.com"
        },
        {
            "empId": "18464",
            "Name": "Prashant Kumar",
            "Email": "Prashant.Patil@mitel.com"
        },
        {
            "empId": "19534",
            "Name": "Achint Kumar",
            "Email": "achint.kumar@mitel.com"
        },
        {
            "empId": "70757",
            "Name": "Abhishek Roy",
            "Email": "abhishek.roy@mitel.com"
        },
        {
            "empId": "20902",
            "Name": "Santhosh Kumar R",
            "Email": "Santhosh.Kumar@mitel.com"
        },
        {
            "empId": "70749",
            "Name": "Suraj Sunil Rodrigues",
            "Email": "suraj.rodrigues@mitel.com"
        },
        {
            "empId": "18336",
            "Name": "Parasuraman Kumarasami",
            "Email": "parasuraman.kumarasami@mitel.com"
        },
        {
            "empId": "70734",
            "Name": "Venu Retnamma",
            "Email": "venu.retnamma@mitel.com"
        },
        {
            "empId": "70464",
            "Name": "Prasad Kumbala",
            "Email": "prasad.kumbala@mitel.com"
        },
        {
            "empId": "18782",
            "Name": "Anuprasad Kummali",
            "Email": "Anuprasad.Kummali@mitel.com"
        },
        {
            "empId": "70877",
            "Name": "Hanumanthu Susmitha",
            "Email": "hanumanthu.susmitha@mitel.com"
        },
        {
            "empId": "70465",
            "Name": "Shailashree Kunjathur",
            "Email": "shailashree.kunjathur@mitel.com"
        },
        {
            "empId": "70466",
            "Name": "Vivek Kutte",
            "Email": "vivek.kutte@mitel.com"
        },
        {
            "empId": "70513",
            "Name": "Arun M",
            "Email": "arun.prasath@mitel.com"
        },
        {
            "empId": "19431",
            "Name": "Chaithra M",
            "Email": "chaithra.m@mitel.com"
        },
        {
            "empId": "19848",
            "Name": "Rekha M",
            "Email": "rekha.murugan@mitel.com"
        },
        {
            "empId": "19977",
            "Name": "Sahil M",
            "Email": "sahil.m@mitel.com"
        },
        {
            "empId": "20575",
            "Name": "Abdul Haris M A",
            "Email": "abdul.haris@mitel.com"
        },
        {
            "empId": "17738",
            "Name": "Kunal Razdan",
            "Email": "Kunal.Razdan@mitel.com"
        },
        {
            "empId": "18277",
            "Name": "Pramod Ray",
            "Email": "Pramod.Ray@mitel.com"
        },
        {
            "empId": "19738",
            "Name": "Sharan Kumar Malkiwodeyar",
            "Email": "sharan.malkiwodeyar@mitel.com"
        },
        {
            "empId": "17170",
            "Name": "Naveen Mani",
            "Email": "naveen.mani@mitel.com"
        },
        {
            "empId": "15796",
            "Name": "Padmaraj Manne",
            "Email": "padmaraj.manne@mitel.com"
        },
        {
            "empId": "70521",
            "Name": "Nitin Manoj",
            "Email": "nitin.manoj@mitel.com"
        },
        {
            "empId": "70721",
            "Name": "Sreekanth Rao",
            "Email": "sreekanth.rao@mitel.com"
        },
        {
            "empId": "15911",
            "Name": "Prajeen Meethala Kattil",
            "Email": "Prajeen.Kattil@mitel.com"
        },
        {
            "empId": "70565",
            "Name": "Priyanka Mishra",
            "Email": "priyanka.mishra@mitel.com"
        },
        {
            "empId": "21284",
            "Name": "Atis Mohanty",
            "Email": "atis.mohanty@mitel.com"
        },
        {
            "empId": "20456",
            "Name": "Nikitha Ramamurthy",
            "Email": "nikitha.ramamurthy@mitel.com"
        },
        {
            "empId": "70591",
            "Name": "Ashappagouda Mustager",
            "Email": "ashappagouda.mustager@mitel.com"
        },
        {
            "empId": "70596",
            "Name": "Siva Nagareddy",
            "Email": "siva.nagareddy@mitel.com"
        },
        {
            "empId": "21182",
            "Name": "Ramesh Naik",
            "Email": "ramesh.naik@mitel.com"
        },
        {
            "empId": "70600",
            "Name": "Rajendra Nandeshwar",
            "Email": "rajendra.nandeshwar@mitel.com"
        },
        {
            "empId": "70606",
            "Name": "Saroj Nayak",
            "Email": "saroj.nayak@mitel.com"
        },
        {
            "empId": "18505",
            "Name": "Neeta Nayak",
            "Email": "Neeta.Nayak@Mitel.com"
        },
        {
            "empId": "17319",
            "Name": "Venkatesh Neelamraju",
            "Email": "Venkatesh.Neelamraju@mitel.com"
        },
        {
            "empId": "70643",
            "Name": "Sri Sai Palamoor",
            "Email": "srisai.palamoor@mitel.com"
        },
        {
            "empId": "70644",
            "Name": "Paraneetharan Palaniyappan",
            "Email": "paraneetharan.palaniyappan@mitel.com"
        },
        {
            "empId": "18341",
            "Name": "Surya Palla",
            "Email": "palla.kumar@mitel.com"
        },
        {
            "empId": "20563",
            "Name": "Saurav Panda",
            "Email": "saurav.panda@mitel.com"
        },
        {
            "empId": "20220",
            "Name": "Sravanthi. Panditi",
            "Email": "sravanthi.panditi@mitel.com"
        },
        {
            "empId": "20576",
            "Name": "Poornima Parameshwarachar",
            "Email": "poornima.parameshwarachar@mitel.com"
        },
        {
            "empId": "70651",
            "Name": "Bhupendra Parihar",
            "Email": "bhupendra.parihar@mitel.com"
        },
        {
            "empId": "20511",
            "Name": "Alok Ranjan",
            "Email": "alok.ranjan1@mitel.com"
        },
        {
            "empId": "70656",
            "Name": "Afzal Pasha",
            "Email": "afzal.pasha@mitel.com"
        },
        {
            "empId": "20510",
            "Name": "Arpita Patel",
            "Email": "arpita.patel@mitel.com"
        },
        {
            "empId": "18343",
            "Name": "Mallikarjuna Patil",
            "Email": "mallikarjuna.patil@mitel.com"
        },
        {
            "empId": "18345",
            "Name": "Shilpa Patil",
            "Email": "Shilpa.Patil@mitel.com"
        },
        {
            "empId": "19970",
            "Name": "Patrick Peisker",
            "Email": "patrick.peisker@mitel.com"
        },
        {
            "empId": "19231",
            "Name": "Veera Polisetty",
            "Email": "veera.polisetty@mitel.com"
        },
        {
            "empId": "16007",
            "Name": "Asish Pradhan",
            "Email": "asish.pradhan@mitel.com"
        },
        {
            "empId": "17786",
            "Name": "Rupraj Pradhan",
            "Email": "Rupraj.Pradhan@mitel.com"
        },
        {
            "empId": "70719",
            "Name": "Amrutha Madhava Rao Ranganadham",
            "Email": "madhava.rao@mitel.com"
        },
        {
            "empId": "70713",
            "Name": "Mekala Rajesh",
            "Email": "mekala.rajesh@mitel.com"
        },
        {
            "empId": "18465",
            "Name": "Beena Premachandran",
            "Email": "Beena.Premachandran@mitel.com"
        },
        {
            "empId": "18997",
            "Name": "Piyush Priyadarshi",
            "Email": "piyush.priyadarshi@mitel.com"
        },
        {
            "empId": "20167",
            "Name": "Pradeep Purushothamman",
            "Email": "pradeep.purushothamman@mitel.com"
        },
        {
            "empId": "19975",
            "Name": "Ashika R",
            "Email": "ashika.r@mitel.com"
        },
        {
            "empId": "20754",
            "Name": "Monika R",
            "Email": "monika.ravi@mitel.com"
        },
        {
            "empId": "70707",
            "Name": "Swaminathan Radhakrishnan",
            "Email": "swaminathan.radhakrishnan@mitel.com"
        },
        {
            "empId": "18670",
            "Name": "Sandeep Rai",
            "Email": "Sandeep.Rai@mitel.com"
        },
        {
            "empId": "18276",
            "Name": "Raghul Raja",
            "Email": "raghul.raja@mitel.com"
        },
        {
            "empId": "18348",
            "Name": "Murali A",
            "Email": "Murali.a@mitel.com"
        },
        {
            "empId": "21166",
            "Name": "Lokesh A",
            "Email": "lokesh.a@mitel.com"
        },
        {
            "empId": "21076",
            "Name": "Fawaz Abdurahman",
            "Email": "fawaz.abdurahman@mitel.com"
        },
        {
            "empId": "20988",
            "Name": "Mohammad Azharuddin",
            "Email": "mohammad.azharuddin@mitel.com"
        },
        {
            "empId": "21165",
            "Name": "Subhranil Baksi",
            "Email": "subhranil.baksi@mitel.com"
        },
        {
            "empId": "18158",
            "Name": "Shashikant Bhogshetty",
            "Email": "shashikant.bhogshetty@mitel.com"
        },
        {
            "empId": "20625",
            "Name": "Ragini C",
            "Email": "ragini.channarayagowda@mitel.com"
        },
        {
            "empId": "20013",
            "Name": "Praveen Chandra",
            "Email": "praveen.chandra@mitel.com"
        },
        {
            "empId": "20301",
            "Name": "Tanmay Chaubal",
            "Email": "tanmay.chaubal@mitel.com"
        },
        {
            "empId": "20086",
            "Name": "Kruthika Damodararao",
            "Email": "kruthika.damodararao@mitel.com"
        },
        {
            "empId": "20011",
            "Name": "Shreenivasa Desai",
            "Email": "shreenivasa.desai@mitel.com"
        },
        {
            "empId": "20204",
            "Name": "Gopika Gopinath",
            "Email": "gopika.gopinath@mitel.com"
        },
        {
            "empId": "20672",
            "Name": "Devani Hardik",
            "Email": "devani.hardik@mitel.com"
        },
        {
            "empId": "20442",
            "Name": "Husenbasha ImamasabMulla",
            "Email": "husenbasha.imamasabMulla@mitel.com"
        },
        {
            "empId": "20295",
            "Name": "Manish Jain",
            "Email": "manish.jain1@mitel.com"
        },
        {
            "empId": "18669",
            "Name": "Mohit Jaiswal",
            "Email": "mohit.jaiswal@contractor.mitel.com"
        },
        {
            "empId": "20734",
            "Name": "Dharanya K",
            "Email": "dharanya.kanagaraj@mitel.com"
        },
        {
            "empId": "18166",
            "Name": "Balaji Kesavan",
            "Email": "balaji.kesavan@mitel.com"
        },
        {
            "empId": "18157",
            "Name": "Paul Kirubakaran",
            "Email": "paul.kirubakaran@mitel.com"
        },
        {
            "empId": "20188",
            "Name": "Apoorva Kulkarni",
            "Email": "apoorva.kulkarni@mitel.com"
        },
        {
            "empId": "20743",
            "Name": "Neha Kulkarni",
            "Email": "neha.kulkarni@mitel.com"
        },
        {
            "empId": "20997",
            "Name": "Vybhav Kumar",
            "Email": "vybhav.kumar@mitel.com"
        },
        {
            "empId": "20209",
            "Name": "Midhun Kumar T M",
            "Email": "midhun.kumar@mitel.com"
        },
        {
            "empId": "20391",
            "Name": "Ashish KumarMeher",
            "Email": "ashish.kumarmeher@mitel.com"
        },
        {
            "empId": "20015",
            "Name": "Debabrata Kundu",
            "Email": "debabrata.kundu@mitel.com"
        },
        {
            "empId": "20010",
            "Name": "Rama Maddi",
            "Email": "Rama.maddi@mitel.com"
        },
        {
            "empId": "21101",
            "Name": "Subham Maharshi",
            "Email": "subham.maharshi@mitel.com"
        },
        {
            "empId": "20990",
            "Name": "Binoj Mathew",
            "Email": "binoj.mathew@mitel.com"
        },
        {
            "empId": "20344",
            "Name": "Nihit Parmer",
            "Email": "nihit.parmer@mitel.com"
        },
        {
            "empId": "20671",
            "Name": "Hinal Prajapati",
            "Email": "hinaldipak.prajapati@mitel.com"
        },
        {
            "empId": "20151",
            "Name": "Yachendra Prasad M",
            "Email": "yachendra.prasad@mitel.com"
        },
        {
            "empId": "21100",
            "Name": "Mohan Raj",
            "Email": "mohan.raj@mitel.com"
        },
        {
            "empId": "20989",
            "Name": "Rahul Ram",
            "Email": "rahul.ram@mitel.com"
        },
        {
            "empId": "20205",
            "Name": "Vignesh Ram S",
            "Email": "vignesh.ram@mitel.com"
        },
        {
            "empId": "21328",
            "Name": "Namrata Ray",
            "Email": "namrata.ray@mitel.com"
        },
        {
            "empId": "20624",
            "Name": "Asha Sagar",
            "Email": "asha.sagar@mitel.com"
        },
        {
            "empId": "20390",
            "Name": "Ingaligi Shanmukappa",
            "Email": "ingaligi.shanmukappa@mitel.com"
        },
        {
            "empId": "18342",
            "Name": "Vishnupriya Sunku",
            "Email": "Vishnupriya.Sunku@contractor.mitel.com"
        },
        {
            "empId": "20372",
            "Name": "Srinivas Ulaganathan",
            "Email": "srinivas.ulaganathan@mitel.com"
        },
        {
            "empId": "20797",
            "Name": "Sailas Varghese",
            "Email": "sailas.varghese@mitel.com"
        },
        {
            "empId": "18248",
            "Name": "Sanjeeve Vellingiri",
            "Email": "sanjeeve.vellingiri@mitel.com"
        },
        {
            "empId": "20468",
            "Name": "Rupesh Sawaratkar",
            "Email": "rupesh.sawaratkar@mitel.com"
        },
        {
            "empId": "20000",
            "Name": "Shersha Sharafudheen",
            "Email": "shersha.sharafudheen@mitel.com"
        },
        {
            "empId": "20288",
            "Name": "Shreeraksha Shetty",
            "Email": "shreeraksha.shetty@mitel.com"
        },
        {
            "empId": "19661",
            "Name": "Mohammed Tausif",
            "Email": "mohammed.tausif@mitel.com"
        },
        {
            "empId": "19672",
            "Name": "Yeshwita Reddy",
            "Email": "yeshwita.reddy@mitel.com"
        },
        {
            "empId": "17367",
            "Name": "Datta Traya",
            "Email": "Datta.Traya@contractor.mitel.com"
        },
        {
            "empId": "19930",
            "Name": "Soumyajit Tripathy",
            "Email": "Soumyajit.Tripathy@mitel.com"
        },
        {
            "empId": "19287",
            "Name": "Lohitha Annabattula",
            "Email": "lohitha.annabattula@mitel.com"
        },
        {
            "empId": "17368",
            "Name": "Kumar Anshuman",
            "Email": "kumar.anshuman2@contractor.mitel.com"
        },
        {
            "empId": "21162",
            "Name": "Veerasubramanian Venkatasubramanian",
            "Email": "Veerasubramanian.Venkatasubramanian@mitel.com"
        },
        {
            "empId": "20539",
            "Name": "Mohammed Ateeq",
            "Email": "Mohammed.Ateeq@mitel.com"
        },
        {
            "empId": "19846",
            "Name": "Febin Vijay",
            "Email": "febin.vijay@mitel.com"
        },
        {
            "empId": "20918",
            "Name": "Vishnu Vijayan",
            "Email": "vishnu.vijayan@mitel.com"
        },
        {
            "empId": "20790",
            "Name": "Andrew Vimal",
            "Email": "Andrew.Vimal@mitel.com"
        },
        {
            "empId": "20291",
            "Name": "Vismith Rai",
            "Email": "vishmith.rai@mitel.com"
        },
        {
            "empId": "18230",
            "Name": "Sooriya Prabhu",
            "Email": "sooriya.prabhu@mitel.com"
        },
        {
            "empId": "20775",
            "Name": "Akash Patil",
            "Email": "akash.patil@mitel.com"
        },
        {
            "empId": "21363",
            "Name": "Abdul Basha",
            "Email": "abdul.basha@mitel.com"
        },
        {
            "empId": "18229",
            "Name": "Kannan Nadarajan",
            "Email": "kannan.nadarajan@mitel.com"
        },
        {
            "empId": "20294",
            "Name": "Riya Mazumder",
            "Email": "riya.mazumder@mitel.com"
        },
        {
            "empId": "19788",
            "Name": "Vikram M",
            "Email": "vikram.m@mitel.com"
        },
        {
            "empId": "21038",
            "Name": "Kushal Lokesh",
            "Email": "kushal.lokesh@mitel.com"
        },
        {
            "empId": "18165",
            "Name": "Geetha Kumari",
            "Email": "geetha.kumari@mitel.com"
        },
        {
            "empId": "20654",
            "Name": "Tilakavathi Kumar",
            "Email": "Tilakavathi.Kumar@mitel.com"
        },
        {
            "empId": "19554",
            "Name": "Vasanth Kumar",
            "Email": "vasanth.kumar1@mitel.com"
        },
        {
            "empId": "18151",
            "Name": "Mohan Kumar",
            "Email": "mohan.kumar@mitel.com"
        },
        {
            "empId": "20252",
            "Name": "Anitha K",
            "Email": "Anitha.K@mitel.com"
        },
        {
            "empId": "20309",
            "Name": "Hemant Jaiswal",
            "Email": "hemant.jaiswal@mitel.com"
        },
        {
            "empId": "18147",
            "Name": "Anand Iyer",
            "Email": "anand.iyer@mitel.com"
        },
        {
            "empId": "20290",
            "Name": "Faizal Feroz Hussain",
            "Email": "faizalferoz.hussain@mitel.com"
        },
        {
            "empId": "16682",
            "Name": "Divya Gowda",
            "Email": "Divya.Gowda@mitel.com"
        },
        {
            "empId": "21164",
            "Name": "Rifath Ferheen",
            "Email": "Rifath.ferheen@mitel.com"
        },
        {
            "empId": "18241",
            "Name": "Prasanna Durairaj",
            "Email": "prasanna.durairaj@mitel.com"
        },
        {
            "empId": "19667",
            "Name": "Ronald Dilip",
            "Email": "ronald.dilip@mitel.com"
        },
        {
            "empId": "18170",
            "Name": "Livingston Devayirakam",
            "Email": "livingston.devayirakam@mitel.com"
        },
        {
            "empId": "20289",
            "Name": "Shoban CK",
            "Email": "shoban.ck@mitel.com"
        },
        {
            "empId": "20008",
            "Name": "Ayush Cherian",
            "Email": "ayush.cherian@mitel.com"
        },
        {
            "Name": "Guest1",
            "Email": "guest1@mitel.virtuallive.in"
        },
        {
            "Name": "Guest2",
            "Email": "guest2@mitel.virtuallive.in"
        },
        {
            "Name": "Guest3",
            "Email": "guest3@mitel.virtuallive.in"
        },
        {
            "Name": "Guest4",
            "Email": "guest4@mitel.virtuallive.in"
        },
        {
            "Name": "Guest5",
            "Email": "guest5@mitel.virtuallive.in"
        },
        {
            "Name": "Guest6",
            "Email": "guest6@mitel.virtuallive.in"
        },
        {
            "Name": "Guest7",
            "Email": "guest7@mitel.virtuallive.in"
        },
        {
            "Name": "Guest8",
            "Email": "guest8@mitel.virtuallive.in"
        },
        {
            "Name": "Guest9",
            "Email": "guest9@mitel.virtuallive.in"
        },
        {
            "Name": "Guest10",
            "Email": "guest10@mitel.virtuallive.in"
        },
        {
            "Name": "Guest11",
            "Email": "guest11@mitel.virtuallive.in"
        },
        {
            "Name": "Guest12",
            "Email": "guest12@mitel.virtuallive.in"
        },
        {
            "Name": "Guest13",
            "Email": "guest13@mitel.virtuallive.in"
        },
        {
            "Name": "Guest14",
            "Email": "guest14@mitel.virtuallive.in"
        },
        {
            "Name": "Guest15",
            "Email": "guest15@mitel.virtuallive.in"
        },
        {
            "Name": "Guest16",
            "Email": "guest16@mitel.virtuallive.in"
        },
        {
            "Name": "Guest17",
            "Email": "guest17@mitel.virtuallive.in"
        },
        {
            "Name": "Guest18",
            "Email": "guest18@mitel.virtuallive.in"
        },
        {
            "Name": "Guest19",
            "Email": "guest19@mitel.virtuallive.in"
        },
        {
            "Name": "Guest20",
            "Email": "guest20@mitel.virtuallive.in"
        }
    ]
